[api-updater (non-obsolete-error-filter)] 4/2/2021 4:02:56 PM : Starting C:/Program Files/Unity/Hub/Editor/2020.3.0f1/Editor/Data/Tools/ScriptUpdater/APIUpdater.NonObsoleteApiUpdaterDetector.exe
[api-updater (non-obsolete-error-filter)] 
----------------------------------
jit/startup time      : 846.9764ms
moved types parse time: 83ms
candidates parse time : 2ms
C# parse time         : 422ms
candidates check time : 46ms
console write time    : 1ms

